{
    "data":
    {
            "inventory":[
		    {{#each childRecords.inventory}}
		    {{#if @index}},{{/if}}
            		{
                      "sku":"{{sku}}",
                      "inventory_tracking":"simple",
                      "inventory_level" : "{{available}}"
            		}
		    {{/each}}
            ]
    }
}
{{!-- inventory update template --}}
{{#ifgreaterthan record.locations.0.quantityavailable 0}}{{else}}{{/ifgreaterthan}}